<?xml version="1.0" encoding="UTF-8"?>
<svg xmlns="http://www.w3.org/2000/svg" version="1.1" viewBox="0 0 963.8 1133.9">
  <defs>
    <style>
      .cls-1 {
        font-size: 85px;
      }

      .cls-1, .cls-2 {
        font-family: URWBookman-DemiItalic, 'URW Bookman';
        font-style: italic;
        font-weight: 300;
      }

      .cls-1, .cls-2, .cls-3, .cls-4 {
        fill: #fff;
      }

      .cls-5, .cls-6, .cls-7, .cls-3, .cls-8, .cls-4 {
        stroke-width: 0px;
      }

      .cls-5, .cls-6, .cls-3, .cls-8 {
        fill-rule: evenodd;
      }

      .cls-5, .cls-7 {
        fill: #3a5b8b;
      }

      .cls-6 {
        fill: #fefefe;
      }

      .cls-2 {
        font-size: 99.9px;
      }

      .cls-8 {
        fill: #34679a;
      }

      .cls-9 {
        display: none;
      }
    </style>
  </defs>
  <g id="Layer_2" data-name="Layer 2">
    <rect class="cls-7" x="0" y="0" width="963.8" height="1133.9"/>
  </g>
  <g id="horizontal_logo" data-name="horizontal logo">
    <text class="cls-2" transform="translate(198.3 647.7)"><tspan x="0" y="0">DebConf24</tspan></text>
    <g class="cls-9">
      <path id="path12" class="cls-8" d="M436.9,400.9s3.4-1.9,6.5-4.2c1.7-1.4,3.4-2.7,3.9-4,1.7-4.7,7.3-8.7,12.1-9,3.5-.2,6.6,1.1,10.5,4,.7-2.3,2.1-4.8,4.1-7.4,4.7-5.9,13-12.9,26.3-21.2,22.1-13.7,52.5-13.7,52.5-13.7.7,0,1.4.3,1.8.8l1.4,1.7c.5.6.7,1.4.5,2.1s-.8,1.4-1.5,1.6c0,0-28.9,9.8-40.5,19.7-10.8,9.2-7.9,22-5.3,28.9,2.9,7.3,13.3,17.7,32.1,25.2.7.2,1.1.8,1.4,1.4.2.7.1,1.4-.2,1.9-3.2,5.4-7.2,10.3-10.8,14.9-.5.6-1.3.9-2.1.9s-1.5-.6-1.8-1.1c-1.6-2.7-5.3-5.9-9.8-9.2-7.2-5.1-16.1-10.2-22.2-13.6-9.4-5.4-16.2-8-27.3-6.7-10.8,3.7-20-3.7-22.2-6.2-.2-.2-.6-.3-.9-.6-.7-.3-1.5-.6-2.3-.8-2.6-.7-5.5-1-5.5-1-1,0-1.8-.9-2.1-1.8s.2-2.1,1.1-2.5h.1Z"/>
      <path id="path14" class="cls-8" d="M517.3,356.3c-4.9,1.7-9.8,3.9-14.4,6.7-12.7,7.8-20.7,14.4-25.2,20-2.6,3.3-3.9,6.2-3.9,8.8s-.6,1.7-1.4,2.1-1.8.2-2.5-.3c-4.3-3.5-7-5.7-10.3-5.5-3.1.2-6.9,3-8,6.1-.6,1.5-1.9,3.1-3.8,4.7-1.1.9-2.4,1.9-3.5,2.7.6.1,1.1.3,1.7.5,1.8.6,3.3,1.4,4.1,2.3,1.6,1.9,8.9,7.7,17.3,4.7.1,0,.3,0,.5-.1,12.5-1.5,20,1.3,30.4,7.3,3,1.7,6.6,3.8,10.5,6.2l5.8-7.5c-5.3-4.7-8.5-9.3-10-13-3.2-8.4-6.2-23.3,6.5-34.2,2.2-1.9,5-3.8,8.2-5.6l-2.5-5.8h.3Z"/>
      <path id="path16" class="cls-8" d="M459.9,397.6c-.3,1.3-1.7,1.9-3,1.5-1.3-.3-1.9-1.7-1.5-3l.6-1.7c.3-1.3,1.7-1.9,3-1.5s1.9,1.7,1.5,3l-.6,1.7h0Z"/>
    </g>
    <path id="path12-2" class="cls-6" d="M436.9,400.9s3.4-1.9,6.5-4.2c1.7-1.4,3.4-2.7,3.9-4,1.7-4.7,7.3-8.7,12.1-9,3.5-.2,6.6,1.1,10.5,4,.7-2.3,2.1-4.8,4.1-7.4,4.7-5.9,13-12.9,26.3-21.2,22.1-13.7,52.5-13.7,52.5-13.7.7,0,1.4.3,1.8.8l1.4,1.7c.5.6.7,1.4.5,2.1s-.8,1.4-1.5,1.6c0,0-28.9,9.8-40.5,19.7-10.8,9.2-7.9,22-5.3,28.9,2.9,7.3,13.3,17.7,32.1,25.2.7.2,1.1.8,1.4,1.4.2.7.1,1.4-.2,1.9-3.2,5.4-7.2,10.3-10.8,14.9-.5.6-1.3.9-2.1.9s-1.5-.6-1.8-1.1c-1.6-2.7-5.3-5.9-9.8-9.2-7.2-5.1-16.1-10.2-22.2-13.6-9.4-5.4-16.2-8-27.3-6.7-10.8,3.7-20-3.7-22.2-6.2-.2-.2-.6-.3-.9-.6-.7-.3-1.5-.6-2.3-.8-2.6-.7-5.5-1-5.5-1-1,0-1.8-.9-2.1-1.8s.2-2.1,1.1-2.5h.1Z"/>
    <path id="path14-2" class="cls-5" d="M517.3,356.3c-4.9,1.7-9.8,3.9-14.4,6.7-12.7,7.8-20.7,14.4-25.2,20-2.6,3.3-3.9,6.2-3.9,8.8s-.6,1.7-1.4,2.1-1.8.2-2.5-.3c-4.3-3.5-7-5.7-10.3-5.5-3.1.2-6.9,3-8,6.1-.6,1.5-1.9,3.1-3.8,4.7-1.1.9-2.4,1.9-3.5,2.7.6.1,1.1.3,1.7.5,1.8.6,3.3,1.4,4.1,2.3,1.6,1.9,8.9,7.7,17.3,4.7.1,0,.3,0,.5-.1,12.5-1.5,20,1.3,30.4,7.3,3,1.7,6.6,3.8,10.5,6.2l5.8-7.5c-5.3-4.7-8.5-9.3-10-13-3.2-8.4-6.2-23.3,6.5-34.2,2.2-1.9,5-3.8,8.2-5.6l-2.5-5.8h.3Z"/>
    <path id="path16-2" class="cls-3" d="M459.9,397.6c-.3,1.3-1.7,1.9-3,1.5-1.3-.3-1.9-1.7-1.5-3l.6-1.7c.3-1.3,1.7-1.9,3-1.5s1.9,1.7,1.5,3l-.6,1.7h0Z"/>
    <g id="debian">
      <path class="cls-4" d="M405.9,399.2c-35.3-10.1-64.4-39-79.6-72.3-12.4-26.5-16.1-56.9-11.6-85.8,5.7-37.5,25.6-73,55.5-96.7,35.5-27.5,85.2-32.9,126.4-15.9,43.7,17.6,76.8,59.5,76.1,107.6-1,40.7-27.7,78.9-64.5,95.5-16.6,7.3-35.9,9.7-53.4,4.6-30.1-9-51.6-40.3-48.7-71.7.1-.8.5-4.2.6-4.9.1-.6.5-2.4.7-3,3.3-12.9,11-24.5,21.7-32.3,10.9-7.1,26-9.5,37.9-4,8.7,3.9,15.6,10.1,20.9,17.5-9.6-2.6-19.4-4.8-29.1-2.9-3.1.6-6.1,1.3-8.8,2.7-1.1.6-2.7,1.6-3.8,2.3-1.8,1.4-3.4,3-5.1,4.3-5.6,4.9-9.7,12.1-10.4,19.6,0,1.3-.2,3.3-.1,4.6.7,19.9,18,39.6,38.3,39.8,26.1.2,47.9-20.8,57.3-43.9,4.8-11.9,6.4-24.4,3.2-36.6-5.5-24.8-26.9-44-50.6-51.9-25.4-8.8-55.6-4.5-76.4,12.9-3.5,3-7,6.7-10.1,10.2-1.4,1.8-3.3,4-4.6,5.8-10,13.2-16.4,28.7-19.4,45-4.6,27.5-.9,56.2,7.3,83,7,23.3,18,44.6,30.2,66.1h0v.2Z"/>
    </g>
    <g>
      <path class="cls-4" d="M222.8,521.9c28.9-22,59.8-41.9,95.1-52.1,8.8-2.7,18.3-4.6,27.4-6.1,51.3-8.4,103.6-.8,154.1,8.9,23.4,4.4,47.2,9.5,70.2,15.7,14.4,3.7,27.6,7.7,41.5,10.4,26.6,5.4,54.3,6,81.5,3.1,26.1-2.9,52-7.7,76.9-16.5-20.1,16.2-43.5,27.6-67.6,36.9-8.6,3.2-17.6,6.2-26.4,8.5-16.9,4.5-34.5,7.8-52.1,7.3-15.9-.4-31.6-4.7-46.8-9.1-24.9-7.2-50.6-14-75.9-19.3-71.9-15.8-137.9-30.8-210.9-9.6-22.2,5.9-45,15.2-67.1,21.7h0v.2Z"/>
      <path class="cls-4" d="M896.3,447.3h0c-13.7-5.1-27.9-12.3-41.7-16.9-45.3-16.5-86.3-4.8-131,7.5-15.7,4.2-31.7,9.5-47.1,15.1-9.4,3.4-19.2,6.8-29.1,7.1-10.9.4-21.9-2.2-32.3-5.7-5.5-1.8-11.1-4.1-16.4-6.6-15-7.2-29.5-16.2-42-28.8,15.5,6.9,31.6,10.7,47.8,12.9,16.9,2.2,34.1,1.8,50.6-2.4,8.6-2.2,16.8-5.2,25.8-8.1,14.3-4.8,29-8.8,43.6-12.3,31.3-7.6,63.9-13.5,95.7-7,5.6,1.1,11.5,2.6,17,4.7,21.9,7.9,41.2,23.5,59.1,40.7h0Z"/>
      <path class="cls-4" d="M407.2,440.2h0c-13.7-5.1-27.9-12.3-41.7-16.9-45.3-16.5-86.3-4.8-131,7.5-15.7,4.2-31.7,9.5-47.1,15.1-9.4,3.4-19.2,6.8-29.1,7.1-10.9.4-21.9-2.2-32.3-5.7-5.5-1.8-11.1-4.1-16.4-6.6-15-7.2-29.5-16.2-42-28.8,15.5,6.9,31.6,10.7,47.8,12.9,16.9,2.2,34.1,1.8,50.6-2.4,8.6-2.2,16.8-5.2,25.8-8.1,14.3-4.8,29-8.8,43.6-12.3,31.3-7.6,63.9-13.5,95.7-7,5.6,1.1,11.5,2.6,17,4.7,21.9,7.9,41.2,23.5,59.1,40.7h0Z"/>
    </g>
    <text class="cls-1" transform="translate(308.5 742.2)"><tspan x="0" y="0">@Busan</tspan></text>
  </g>
</svg>